{
  "project_info": {
    "project_number": "128371839311",
    "firebase_url": "https://shopclix-330d0.firebaseio.com",
    "project_id": "shopclix-330d0",
    "storage_bucket": "shopclix-330d0.appspot.com"
  },
  "client": [
    {
      "client_info": {
        "mobilesdk_app_id": "1:128371839311:android:14c13e0c9f017578",
        "android_client_info": {
          "package_name": "com.shopclix.rishabh.shopclix"
        }
      },
      "oauth_client": [
        {
          "client_id": "128371839311-12i5heqf2hjaitshefdggb5co17404gm.apps.googleusercontent.com",
          "client_type": 1,
          "android_info": {
            "package_name": "com.shopclix.rishabh.shopclix",
            "certificate_hash": "26f8baf4f1dce3a1fa8fd36f81a56140c043d099"
          }
        },
        {
          "client_id": "128371839311-3kb0tqivi1ithgdfjleujfvrl3kpj75q.apps.googleusercontent.com",
          "client_type": 3
        }
      ],
      "api_key": [
        {
          "current_key": "AIzaSyAs6NixDDtyP7Zx7aBGjUs3EHcXedeHeSU"
        }
      ],
      "services": {
        "analytics_service": {
          "status": 1
        },
        "appinvite_service": {
          "status": 2,
          "other_platform_oauth_client": [
            {
              "client_id": "128371839311-3kb0tqivi1ithgdfjleujfvrl3kpj75q.apps.googleusercontent.com",
              "client_type": 3
            }
          ]
        },
        "ads_service": {
          "status": 2
        }
      }
    }
  ],
  "configuration_version": "1"
}